[api-updater (non-obsolete-error-filter)] 23.01.2022 18:23:41 : Starting C:/Program Files/Unity/Hub/Editor/2020.3.25f1/Editor/Data/Tools/ScriptUpdater/APIUpdater.NonObsoleteApiUpdaterDetector.exe
[api-updater (non-obsolete-error-filter)] 
----------------------------------
jit/startup time      : 4173,0279ms
moved types parse time: 127ms
candidates parse time : 11ms
C# parse time         : 1316ms
candidates check time : 44ms
console write time    : 0ms

[api-updater (non-obsolete-error-filter)] 09.02.2022 20:00:33 : Starting C:/Program Files/Unity/Hub/Editor/2020.3.25f1/Editor/Data/Tools/ScriptUpdater/APIUpdater.NonObsoleteApiUpdaterDetector.exe
[api-updater (non-obsolete-error-filter)] 
----------------------------------
jit/startup time      : 2549,9364ms
moved types parse time: 162ms
candidates parse time : 14ms
C# parse time         : 1243ms
candidates check time : 56ms
console write time    : 0ms

[api-updater (non-obsolete-error-filter)] 09.02.2022 20:23:47 : Starting C:/Program Files/Unity/Hub/Editor/2020.3.25f1/Editor/Data/Tools/ScriptUpdater/APIUpdater.NonObsoleteApiUpdaterDetector.exe
[api-updater (non-obsolete-error-filter)] 
----------------------------------
jit/startup time      : 98,9414ms
moved types parse time: 59ms
candidates parse time : 1ms
C# parse time         : 248ms
candidates check time : 64ms
console write time    : 0ms

[api-updater (non-obsolete-error-filter)] 09.02.2022 20:23:51 : Starting C:/Program Files/Unity/Hub/Editor/2020.3.25f1/Editor/Data/Tools/ScriptUpdater/APIUpdater.NonObsoleteApiUpdaterDetector.exe
[api-updater (non-obsolete-error-filter)] 
----------------------------------
jit/startup time      : 69,8552ms
moved types parse time: 59ms
candidates parse time : 2ms
C# parse time         : 269ms
candidates check time : 62ms
console write time    : 0ms

[api-updater (non-obsolete-error-filter)] 13.02.2022 14:59:17 : Starting C:/Program Files/Unity/Hub/Editor/2020.3.25f1/Editor/Data/Tools/ScriptUpdater/APIUpdater.NonObsoleteApiUpdaterDetector.exe
[api-updater (non-obsolete-error-filter)] 
----------------------------------
jit/startup time      : 3572,8022ms
moved types parse time: 140ms
candidates parse time : 2ms
C# parse time         : 1408ms
candidates check time : 44ms
console write time    : 0ms

[api-updater (non-obsolete-error-filter)] 13.02.2022 15:00:28 : Starting C:/Program Files/Unity/Hub/Editor/2020.3.25f1/Editor/Data/Tools/ScriptUpdater/APIUpdater.NonObsoleteApiUpdaterDetector.exe
[api-updater (non-obsolete-error-filter)] 
----------------------------------
jit/startup time      : 62,5285ms
moved types parse time: 80ms
candidates parse time : 1ms
C# parse time         : 213ms
candidates check time : 28ms
console write time    : 0ms

[api-updater (non-obsolete-error-filter)] 13.02.2022 15:14:25 : Starting C:/Program Files/Unity/Hub/Editor/2020.3.25f1/Editor/Data/Tools/ScriptUpdater/APIUpdater.NonObsoleteApiUpdaterDetector.exe
[api-updater (non-obsolete-error-filter)] 
----------------------------------
jit/startup time      : 108,7086ms
moved types parse time: 69ms
candidates parse time : 1ms
C# parse time         : 287ms
candidates check time : 39ms
console write time    : 0ms

[api-updater (non-obsolete-error-filter)] 13.02.2022 15:46:46 : Starting C:/Program Files/Unity/Hub/Editor/2020.3.25f1/Editor/Data/Tools/ScriptUpdater/APIUpdater.NonObsoleteApiUpdaterDetector.exe
[api-updater (non-obsolete-error-filter)] 
----------------------------------
jit/startup time      : 77,7929ms
moved types parse time: 63ms
candidates parse time : 1ms
C# parse time         : 227ms
candidates check time : 29ms
console write time    : 0ms

